<?xml version="1.0" encoding="UTF-8" standalone="no"?>
<!-- Created with Inkscape (http://www.inkscape.org/) -->

<svg
   xmlns:dc="http://purl.org/dc/elements/1.1/"
   xmlns:cc="http://creativecommons.org/ns#"
   xmlns:rdf="http://www.w3.org/1999/02/22-rdf-syntax-ns#"
   xmlns:svg="http://www.w3.org/2000/svg"
   xmlns="http://www.w3.org/2000/svg"
   xmlns:sodipodi="http://sodipodi.sourceforge.net/DTD/sodipodi-0.dtd"
   xmlns:inkscape="http://www.inkscape.org/namespaces/inkscape"
   width="210mm"
   height="297mm"
   viewBox="0 0 210 297"
   version="1.1"
   id="svg8"
   inkscape:version="0.92.1 r15371"
   sodipodi:docname="two_teams.svg"
   inkscape:export-filename="/home/xtrm/image.png"
   inkscape:export-xdpi="90"
   inkscape:export-ydpi="90">
  <defs
     id="defs2">
    <style
       id="style4655"
       type="text/css">
    .fil0 {fill:black}
  </style>
  </defs>
  <sodipodi:namedview
     id="base"
     pagecolor="#ffffff"
     bordercolor="#666666"
     borderopacity="1.0"
     inkscape:pageopacity="0.0"
     inkscape:pageshadow="2"
     inkscape:zoom="0.27310618"
     inkscape:cx="721.92338"
     inkscape:cy="451.85666"
     inkscape:document-units="mm"
     inkscape:current-layer="layer2"
     showgrid="false"
     inkscape:window-width="1362"
     inkscape:window-height="729"
     inkscape:window-x="0"
     inkscape:window-y="18"
     inkscape:window-maximized="0" />
  <metadata
     id="metadata5">
    <rdf:RDF>
      <cc:Work
         rdf:about="">
        <dc:format>image/svg+xml</dc:format>
        <dc:type
           rdf:resource="http://purl.org/dc/dcmitype/StillImage" />
        <dc:title />
      </cc:Work>
    </rdf:RDF>
  </metadata>
  <g
     inkscape:label="Calque 1"
     inkscape:groupmode="layer"
     id="layer1"
     style="display:inline">
    <g
       id="g4915"
       transform="translate(-65.763843,2.7401601)"
       inkscape:export-xdpi="90"
       inkscape:export-ydpi="90">
      <g
         style="clip-rule:evenodd;fill:#d4aa00;fill-rule:evenodd;image-rendering:optimizeQuality;shape-rendering:geometricPrecision;text-rendering:geometricPrecision"
         id="g4701"
         transform="matrix(0.01610413,0,0,0.01610413,68.103223,25.332925)">
        <g
           style="fill:#d4aa00"
           id="g4699">
          <path
             id="path4697"
             d="M 1714,2044 C 1714,1454 1330,976 857,976 384,976 0,1454 0,2044 c 0,92 384,167 857,167 473,0 857,-75 857,-167 z M 857,0 c 258,0 467,209 467,467 0,258 -209,467 -467,467 C 599,934 390,725 390,467 390,209 599,0 857,0 Z"
             class="fil0"
             inkscape:connector-curvature="0"
             style="fill:#d4aa00" />
        </g>
      </g>
      <g
         transform="matrix(0.01610413,0,0,0.01610413,99.541477,4.5238624)"
         id="g4707"
         style="clip-rule:evenodd;fill:#d4aa00;fill-rule:evenodd;image-rendering:optimizeQuality;shape-rendering:geometricPrecision;text-rendering:geometricPrecision">
        <g
           style="fill:#d4aa00"
           id="g4705">
          <path
             style="fill:#d4aa00"
             inkscape:connector-curvature="0"
             class="fil0"
             d="M 1714,2044 C 1714,1454 1330,976 857,976 384,976 0,1454 0,2044 c 0,92 384,167 857,167 473,0 857,-75 857,-167 z M 857,0 c 258,0 467,209 467,467 0,258 -209,467 -467,467 C 599,934 390,725 390,467 390,209 599,0 857,0 Z"
             id="path4703" />
        </g>
      </g>
      <g
         transform="matrix(-0.01610413,0,0,0.01610413,195.76991,25.332925)"
         id="g4725"
         style="clip-rule:evenodd;fill:#d4aa00;fill-rule:evenodd;image-rendering:optimizeQuality;shape-rendering:geometricPrecision;text-rendering:geometricPrecision">
        <g
           style="fill:#d4aa00"
           id="g4723">
          <path
             style="fill:#d4aa00"
             inkscape:connector-curvature="0"
             class="fil0"
             d="M 1714,2044 C 1714,1454 1330,976 857,976 384,976 0,1454 0,2044 c 0,92 384,167 857,167 473,0 857,-75 857,-167 z M 857,0 c 258,0 467,209 467,467 0,258 -209,467 -467,467 C 599,934 390,725 390,467 390,209 599,0 857,0 Z"
             id="path4721" />
        </g>
      </g>
      <g
         style="clip-rule:evenodd;fill:#d4aa00;fill-rule:evenodd;image-rendering:optimizeQuality;shape-rendering:geometricPrecision;text-rendering:geometricPrecision"
         id="g4731"
         transform="matrix(-0.01610413,0,0,0.01610413,164.33166,4.5238624)">
        <g
           style="fill:#d4aa00"
           id="g4729">
          <path
             id="path4727"
             d="M 1714,2044 C 1714,1454 1330,976 857,976 384,976 0,1454 0,2044 c 0,92 384,167 857,167 473,0 857,-75 857,-167 z M 857,0 c 258,0 467,209 467,467 0,258 -209,467 -467,467 C 599,934 390,725 390,467 390,209 599,0 857,0 Z"
             class="fil0"
             inkscape:connector-curvature="0"
             style="fill:#d4aa00" />
        </g>
      </g>
      <g
         transform="matrix(-0.01610413,0,0,0.01610413,95.705707,65.429377)"
         id="g4737"
         style="clip-rule:evenodd;fill:#d4aa00;fill-rule:evenodd;image-rendering:optimizeQuality;shape-rendering:geometricPrecision;text-rendering:geometricPrecision">
        <g
           style="fill:#d4aa00"
           id="g4735">
          <path
             style="fill:#d4aa00"
             inkscape:connector-curvature="0"
             class="fil0"
             d="M 1714,2044 C 1714,1454 1330,976 857,976 384,976 0,1454 0,2044 c 0,92 384,167 857,167 473,0 857,-75 857,-167 z M 857,0 c 258,0 467,209 467,467 0,258 -209,467 -467,467 C 599,934 390,725 390,467 390,209 599,0 857,0 Z"
             id="path4733" />
        </g>
      </g>
      <g
         style="clip-rule:evenodd;fill:#d4aa00;fill-rule:evenodd;image-rendering:optimizeQuality;shape-rendering:geometricPrecision;text-rendering:geometricPrecision"
         id="g4743"
         transform="matrix(-0.01610413,0,0,0.01610413,127.14396,86.238455)">
        <g
           style="fill:#d4aa00"
           id="g4741">
          <path
             id="path4739"
             d="M 1714,2044 C 1714,1454 1330,976 857,976 384,976 0,1454 0,2044 c 0,92 384,167 857,167 473,0 857,-75 857,-167 z M 857,0 c 258,0 467,209 467,467 0,258 -209,467 -467,467 C 599,934 390,725 390,467 390,209 599,0 857,0 Z"
             class="fil0"
             inkscape:connector-curvature="0"
             style="fill:#d4aa00" />
        </g>
      </g>
      <g
         style="clip-rule:evenodd;fill:#d4aa00;fill-rule:evenodd;image-rendering:optimizeQuality;shape-rendering:geometricPrecision;text-rendering:geometricPrecision"
         id="g4749"
         transform="matrix(0.01610413,0,0,0.01610413,168.16743,65.429377)">
        <g
           style="fill:#d4aa00"
           id="g4747">
          <path
             id="path4745"
             d="M 1714,2044 C 1714,1454 1330,976 857,976 384,976 0,1454 0,2044 c 0,92 384,167 857,167 473,0 857,-75 857,-167 z M 857,0 c 258,0 467,209 467,467 0,258 -209,467 -467,467 C 599,934 390,725 390,467 390,209 599,0 857,0 Z"
             class="fil0"
             inkscape:connector-curvature="0"
             style="fill:#d4aa00" />
        </g>
      </g>
      <g
         transform="matrix(0.01610413,0,0,0.01610413,136.72918,86.238447)"
         id="g4755"
         style="clip-rule:evenodd;fill:#d4aa00;fill-rule:evenodd;image-rendering:optimizeQuality;shape-rendering:geometricPrecision;text-rendering:geometricPrecision">
        <g
           style="fill:#d4aa00"
           id="g4753">
          <path
             style="fill:#d4aa00"
             inkscape:connector-curvature="0"
             class="fil0"
             d="M 1714,2044 C 1714,1454 1330,976 857,976 384,976 0,1454 0,2044 c 0,92 384,167 857,167 473,0 857,-75 857,-167 z M 857,0 c 258,0 467,209 467,467 0,258 -209,467 -467,467 C 599,934 390,725 390,467 390,209 599,0 857,0 Z"
             id="path4751" />
        </g>
      </g>
      <text
         id="text4855"
         y="72.306877"
         x="130.84264"
         style="font-style:normal;font-variant:normal;font-weight:normal;font-stretch:normal;font-size:16.93333244px;line-height:0.1%;font-family:Go;-inkscape-font-specification:Go;text-align:center;letter-spacing:0px;word-spacing:0px;text-anchor:middle;fill:#d4aa00;fill-opacity:1;stroke:none;stroke-width:0.26458332px;stroke-linecap:butt;stroke-linejoin:miter;stroke-opacity:1"
         xml:space="preserve"><tspan
           style="font-style:normal;font-variant:normal;font-weight:normal;font-stretch:normal;font-family:Go;-inkscape-font-specification:Go;fill:#d4aa00;fill-opacity:1;stroke-width:0.26458332px"
           y="72.306877"
           x="130.84264"
           id="tspan4853"
           sodipodi:role="line">devs</tspan></text>
    </g>
    <g
       id="g4932"
       transform="translate(109.22997,-175.42912)"
       inkscape:export-xdpi="90"
       inkscape:export-ydpi="90">
      <g
         transform="matrix(0.81054233,0,0,0.81054233,113.74321,209.57875)"
         id="g4851">
        <g
           style="clip-rule:evenodd;fill-rule:evenodd;image-rendering:optimizeQuality;shape-rendering:geometricPrecision;text-rendering:geometricPrecision"
           id="g4671"
           transform="matrix(0.01986834,0,0,0.01986834,17.310698,11.131703)">
          <g
             id="Layer_x0020_1">
            <path
               id="path4659"
               d="M 1714,2044 C 1714,1454 1330,976 857,976 384,976 0,1454 0,2044 c 0,92 384,167 857,167 473,0 857,-75 857,-167 z M 857,0 c 258,0 467,209 467,467 0,258 -209,467 -467,467 C 599,934 390,725 390,467 390,209 599,0 857,0 Z"
               class="fil0"
               inkscape:connector-curvature="0"
               style="fill:#000000" />
          </g>
        </g>
        <g
           transform="matrix(0.01986834,0,0,0.01986834,55.128598,11.131703)"
           id="g4677"
           style="clip-rule:evenodd;fill-rule:evenodd;image-rendering:optimizeQuality;shape-rendering:geometricPrecision;text-rendering:geometricPrecision">
          <g
             id="g4675">
            <path
               style="fill:#000000"
               inkscape:connector-curvature="0"
               class="fil0"
               d="M 1714,2044 C 1714,1454 1330,976 857,976 384,976 0,1454 0,2044 c 0,92 384,167 857,167 473,0 857,-75 857,-167 z M 857,0 c 258,0 467,209 467,467 0,258 -209,467 -467,467 C 599,934 390,725 390,467 390,209 599,0 857,0 Z"
               id="path4673" />
          </g>
        </g>
        <g
           transform="matrix(0.01986834,0,0,0.01986834,17.310698,59.263555)"
           id="g4689"
           style="clip-rule:evenodd;fill-rule:evenodd;image-rendering:optimizeQuality;shape-rendering:geometricPrecision;text-rendering:geometricPrecision">
          <g
             id="g4687">
            <path
               style="fill:#000000"
               inkscape:connector-curvature="0"
               class="fil0"
               d="M 1714,2044 C 1714,1454 1330,976 857,976 384,976 0,1454 0,2044 c 0,92 384,167 857,167 473,0 857,-75 857,-167 z M 857,0 c 258,0 467,209 467,467 0,258 -209,467 -467,467 C 599,934 390,725 390,467 390,209 599,0 857,0 Z"
               id="path4685" />
          </g>
        </g>
        <g
           style="clip-rule:evenodd;fill-rule:evenodd;image-rendering:optimizeQuality;shape-rendering:geometricPrecision;text-rendering:geometricPrecision"
           id="g4695"
           transform="matrix(0.01986834,0,0,0.01986834,55.128598,59.263555)">
          <g
             id="g4693">
            <path
               id="path4691"
               d="M 1714,2044 C 1714,1454 1330,976 857,976 384,976 0,1454 0,2044 c 0,92 384,167 857,167 473,0 857,-75 857,-167 z M 857,0 c 258,0 467,209 467,467 0,258 -209,467 -467,467 C 599,934 390,725 390,467 390,209 599,0 857,0 Z"
               class="fil0"
               inkscape:connector-curvature="0"
               style="fill:#000000" />
          </g>
        </g>
      </g>
      <text
         xml:space="preserve"
         style="font-style:normal;font-variant:normal;font-weight:normal;font-stretch:normal;font-size:16.93333244px;line-height:0.1%;font-family:Go;-inkscape-font-specification:Go;text-align:center;letter-spacing:0px;word-spacing:0px;text-anchor:middle;fill:#000000;fill-opacity:1;stroke:none;stroke-width:0.26458332px;stroke-linecap:butt;stroke-linejoin:miter;stroke-opacity:1"
         x="156.23865"
         y="213.81186"
         id="text4859"><tspan
           sodipodi:role="line"
           id="tspan4857"
           x="156.23865"
           y="213.81186"
           style="font-style:normal;font-variant:normal;font-weight:normal;font-stretch:normal;font-family:Go;-inkscape-font-specification:Go;stroke-width:0.26458332px">admins</tspan></text>
    </g>
  </g>
  <g
     inkscape:groupmode="layer"
     id="layer2"
     inkscape:label="devops"
     style="display:inline">
    <g
       id="g5018"
       inkscape:export-xdpi="90"
       inkscape:export-ydpi="90">
      <g
         transform="matrix(0.81054233,0,0,0.81054233,125.79793,-68.508199)"
         style="fill:#71c837"
         id="g4811">
        <g
           transform="matrix(0.01986834,0,0,0.01986834,17.310698,132.84006)"
           id="g4761"
           style="clip-rule:evenodd;fill:#71c837;fill-rule:evenodd;image-rendering:optimizeQuality;shape-rendering:geometricPrecision;text-rendering:geometricPrecision">
          <g
             style="fill:#71c837"
             id="g4759">
            <path
               style="fill:#71c837"
               inkscape:connector-curvature="0"
               class="fil0"
               d="M 1714,2044 C 1714,1454 1330,976 857,976 384,976 0,1454 0,2044 c 0,92 384,167 857,167 473,0 857,-75 857,-167 z M 857,0 c 258,0 467,209 467,467 0,258 -209,467 -467,467 C 599,934 390,725 390,467 390,209 599,0 857,0 Z"
               id="path4757" />
          </g>
        </g>
        <g
           style="clip-rule:evenodd;fill:#71c837;fill-rule:evenodd;image-rendering:optimizeQuality;shape-rendering:geometricPrecision;text-rendering:geometricPrecision"
           id="g4767"
           transform="matrix(0.01986834,0,0,0.01986834,55.128598,121.72755)">
          <g
             style="fill:#71c837"
             id="g4765">
            <path
               id="path4763"
               d="M 1714,2044 C 1714,1454 1330,976 857,976 384,976 0,1454 0,2044 c 0,92 384,167 857,167 473,0 857,-75 857,-167 z M 857,0 c 258,0 467,209 467,467 0,258 -209,467 -467,467 C 599,934 390,725 390,467 390,209 599,0 857,0 Z"
               class="fil0"
               inkscape:connector-curvature="0"
               style="fill:#71c837" />
          </g>
        </g>
        <g
           style="clip-rule:evenodd;fill:#71c837;fill-rule:evenodd;image-rendering:optimizeQuality;shape-rendering:geometricPrecision;text-rendering:geometricPrecision"
           id="g4773"
           transform="matrix(0.01986834,0,0,0.01986834,17.310698,180.97194)">
          <g
             style="fill:#71c837"
             id="g4771">
            <path
               id="path4769"
               d="M 1714,2044 C 1714,1454 1330,976 857,976 384,976 0,1454 0,2044 c 0,92 384,167 857,167 473,0 857,-75 857,-167 z M 857,0 c 258,0 467,209 467,467 0,258 -209,467 -467,467 C 599,934 390,725 390,467 390,209 599,0 857,0 Z"
               class="fil0"
               inkscape:connector-curvature="0"
               style="fill:#71c837" />
          </g>
        </g>
        <g
           transform="matrix(0.01986834,0,0,0.01986834,55.128598,191.55528)"
           id="g4779"
           style="clip-rule:evenodd;fill:#71c837;fill-rule:evenodd;image-rendering:optimizeQuality;shape-rendering:geometricPrecision;text-rendering:geometricPrecision">
          <g
             style="fill:#71c837"
             id="g4777">
            <path
               style="fill:#71c837"
               inkscape:connector-curvature="0"
               class="fil0"
               d="M 1714,2044 C 1714,1454 1330,976 857,976 384,976 0,1454 0,2044 c 0,92 384,167 857,167 473,0 857,-75 857,-167 z M 857,0 c 258,0 467,209 467,467 0,258 -209,467 -467,467 C 599,934 390,725 390,467 390,209 599,0 857,0 Z"
               id="path4775" />
          </g>
        </g>
        <g
           transform="matrix(0.01986834,0,0,0.01986834,92.170267,132.84006)"
           id="g4785"
           style="clip-rule:evenodd;fill:#71c837;fill-rule:evenodd;image-rendering:optimizeQuality;shape-rendering:geometricPrecision;text-rendering:geometricPrecision">
          <g
             style="fill:#71c837"
             id="g4783">
            <path
               style="fill:#71c837"
               inkscape:connector-curvature="0"
               class="fil0"
               d="M 1714,2044 C 1714,1454 1330,976 857,976 384,976 0,1454 0,2044 c 0,92 384,167 857,167 473,0 857,-75 857,-167 z M 857,0 c 258,0 467,209 467,467 0,258 -209,467 -467,467 C 599,934 390,725 390,467 390,209 599,0 857,0 Z"
               id="path4781" />
          </g>
        </g>
        <g
           style="clip-rule:evenodd;fill:#71c837;fill-rule:evenodd;image-rendering:optimizeQuality;shape-rendering:geometricPrecision;text-rendering:geometricPrecision"
           id="g4791"
           transform="matrix(0.01986834,0,0,0.01986834,92.170267,180.97194)">
          <g
             style="fill:#71c837"
             id="g4789">
            <path
               id="path4787"
               d="M 1714,2044 C 1714,1454 1330,976 857,976 384,976 0,1454 0,2044 c 0,92 384,167 857,167 473,0 857,-75 857,-167 z M 857,0 c 258,0 467,209 467,467 0,258 -209,467 -467,467 C 599,934 390,725 390,467 390,209 599,0 857,0 Z"
               class="fil0"
               inkscape:connector-curvature="0"
               style="fill:#71c837" />
          </g>
        </g>
      </g>
      <text
         xml:space="preserve"
         style="font-style:normal;font-variant:normal;font-weight:normal;font-stretch:normal;font-size:16.93333244px;line-height:0.1%;font-family:Go;-inkscape-font-specification:Go;text-align:center;letter-spacing:0px;word-spacing:0px;text-anchor:middle;fill:#000000;fill-opacity:1;stroke:none;stroke-width:0.26458332px;stroke-linecap:butt;stroke-linejoin:miter;stroke-opacity:1"
         x="185.8345"
         y="26.061359"
         id="text4863"><tspan
           sodipodi:role="line"
           id="tspan4861"
           x="185.8345"
           y="26.061359"
           style="font-style:normal;font-variant:normal;font-weight:normal;font-stretch:normal;font-family:Go;-inkscape-font-specification:Go;fill:#71c837;fill-opacity:1;stroke-width:0.26458332px">devops</tspan></text>
    </g>
  </g>
  <g
     inkscape:groupmode="layer"
     id="layer3"
     inkscape:label="wall"
     style="display:none">
    <g
       style="display:inline"
       transform="matrix(0.35095601,0,0,0.35095601,73.471011,-45.683093)"
       id="layer1-2"
       inkscape:export-xdpi="90"
       inkscape:export-ydpi="90">
      <g
         transform="matrix(0.23515,0,0,0.23515,204.92,618.2)"
         id="g8243">
        <g
           transform="matrix(0.5,0.86603,-0.86603,0.5,-848.24,-1028.1)"
           style="stroke:#a02c2c"
           id="g7986">
          <rect
             x="971.46997"
             y="704.27002"
             width="223.08"
             height="74.286003"
             transform="matrix(0.10991,-0.99394,0.86603,0.5,0,0)"
             style="fill:#cc0000;stroke:#a02c2c;stroke-width:3.13499999"
             id="use5590-4" />
          <rect
             x="1087.5"
             y="784.5"
             width="223.08"
             height="74.286003"
             transform="matrix(0.10991,-0.99394,0.86603,0.5,0,0)"
             style="fill:#cc0000;stroke:#a02c2c;stroke-width:3.13499999"
             id="use5592-0" />
          <rect
             x="971.46997"
             y="543.82001"
             width="223.08"
             height="74.286003"
             transform="matrix(0.10991,-0.99394,0.86603,0.5,0,0)"
             style="fill:#cc0000;stroke:#a02c2c;stroke-width:3.13499999"
             id="use5606-4" />
          <rect
             x="1087.5"
             y="624.04999"
             width="223.08"
             height="74.286003"
             transform="matrix(0.10991,-0.99394,0.86603,0.5,0,0)"
             style="fill:#cc0000;stroke:#a02c2c;stroke-width:3.13499999"
             id="use5608-8" />
          <rect
             x="1203.5"
             y="704.27002"
             width="223.08"
             height="74.286003"
             transform="matrix(0.10991,-0.99394,0.86603,0.5,0,0)"
             style="fill:#cc0000;stroke:#a02c2c;stroke-width:3.13499999"
             id="use5610-8" />
          <rect
             x="1319.5"
             y="784.5"
             width="223.08"
             height="74.286003"
             transform="matrix(0.10991,-0.99394,0.86603,0.5,0,0)"
             style="fill:#cc0000;stroke:#a02c2c;stroke-width:3.13499999"
             id="use5612-2" />
          <rect
             x="971.46997"
             y="383.35999"
             width="223.08"
             height="74.286003"
             transform="matrix(0.10991,-0.99394,0.86603,0.5,0,0)"
             style="fill:#cc0000;stroke:#a02c2c;stroke-width:3.13499999"
             id="use5622-5" />
          <rect
             x="1087.5"
             y="463.59"
             width="223.08"
             height="74.286003"
             transform="matrix(0.10991,-0.99394,0.86603,0.5,0,0)"
             style="fill:#cc0000;stroke:#a02c2c;stroke-width:3.13499999"
             id="use5624-5" />
          <rect
             x="1203.5"
             y="543.82001"
             width="223.08"
             height="74.286003"
             transform="matrix(0.10991,-0.99394,0.86603,0.5,0,0)"
             style="fill:#cc0000;stroke:#a02c2c;stroke-width:3.13499999"
             id="use5626-1" />
          <rect
             x="1319.5"
             y="624.04999"
             width="223.08"
             height="74.286003"
             transform="matrix(0.10991,-0.99394,0.86603,0.5,0,0)"
             style="fill:#cc0000;stroke:#a02c2c;stroke-width:3.13499999"
             id="use5628-7" />
          <rect
             x="1435.5"
             y="704.27002"
             width="223.08"
             height="74.286003"
             transform="matrix(0.10991,-0.99394,0.86603,0.5,0,0)"
             style="fill:#cc0000;stroke:#a02c2c;stroke-width:3.13499999"
             id="use5630-1" />
          <rect
             x="1551.5"
             y="784.5"
             width="223.08"
             height="74.286003"
             transform="matrix(0.10991,-0.99394,0.86603,0.5,0,0)"
             style="fill:#cc0000;stroke:#a02c2c;stroke-width:3.13499999"
             id="use5632-1" />
          <rect
             x="971.46997"
             y="222.89999"
             width="223.08"
             height="74.286003"
             transform="matrix(0.10991,-0.99394,0.86603,0.5,0,0)"
             style="fill:#cc0000;stroke:#a02c2c;stroke-width:3.13499999"
             id="use5638-2" />
          <rect
             x="1087.5"
             y="303.13"
             width="223.08"
             height="74.286003"
             transform="matrix(0.10991,-0.99394,0.86603,0.5,0,0)"
             style="fill:#cc0000;stroke:#a02c2c;stroke-width:3.13499999"
             id="use5640-7" />
          <rect
             x="1203.5"
             y="383.35999"
             width="223.08"
             height="74.286003"
             transform="matrix(0.10991,-0.99394,0.86603,0.5,0,0)"
             style="fill:#cc0000;stroke:#a02c2c;stroke-width:3.13499999"
             id="use5642-6" />
          <rect
             x="1319.5"
             y="463.59"
             width="223.08"
             height="74.286003"
             transform="matrix(0.10991,-0.99394,0.86603,0.5,0,0)"
             style="fill:#cc0000;stroke:#a02c2c;stroke-width:3.13499999"
             id="use5644-1" />
          <rect
             x="1435.5"
             y="543.82001"
             width="223.08"
             height="74.286003"
             transform="matrix(0.10991,-0.99394,0.86603,0.5,0,0)"
             style="fill:#cc0000;stroke:#a02c2c;stroke-width:3.13499999"
             id="use5646-4" />
          <rect
             x="1551.5"
             y="624.04999"
             width="223.08"
             height="74.286003"
             transform="matrix(0.10991,-0.99394,0.86603,0.5,0,0)"
             style="fill:#cc0000;stroke:#a02c2c;stroke-width:3.13499999"
             id="use5648-2" />
          <rect
             x="1667.5"
             y="704.27002"
             width="223.08"
             height="74.286003"
             transform="matrix(0.10991,-0.99394,0.86603,0.5,0,0)"
             style="fill:#cc0000;stroke:#a02c2c;stroke-width:3.13499999"
             id="use5650-3" />
          <rect
             x="1783.5"
             y="784.5"
             width="223.08"
             height="74.286003"
             transform="matrix(0.10991,-0.99394,0.86603,0.5,0,0)"
             style="fill:#cc0000;stroke:#a02c2c;stroke-width:3.13499999"
             id="use5652-2" />
          <rect
             x="971.46997"
             y="62.445999"
             width="223.08"
             height="74.286003"
             transform="matrix(0.10991,-0.99394,0.86603,0.5,0,0)"
             style="fill:#cc0000;stroke:#a02c2c;stroke-width:3.13499999"
             id="use5654-2" />
          <rect
             x="1087.5"
             y="142.67"
             width="223.08"
             height="74.286003"
             transform="matrix(0.10991,-0.99394,0.86603,0.5,0,0)"
             style="fill:#cc0000;stroke:#a02c2c;stroke-width:3.13499999"
             id="use5656-1" />
          <rect
             x="1203.5"
             y="222.89999"
             width="223.08"
             height="74.286003"
             transform="matrix(0.10991,-0.99394,0.86603,0.5,0,0)"
             style="fill:#cc0000;stroke:#a02c2c;stroke-width:3.13499999"
             id="use5658-6" />
          <rect
             x="1319.5"
             y="303.13"
             width="223.08"
             height="74.286003"
             transform="matrix(0.10991,-0.99394,0.86603,0.5,0,0)"
             style="fill:#cc0000;stroke:#a02c2c;stroke-width:3.13499999"
             id="use5660-8" />
          <rect
             x="1435.5"
             y="383.35999"
             width="223.08"
             height="74.286003"
             transform="matrix(0.10991,-0.99394,0.86603,0.5,0,0)"
             style="fill:#cc0000;stroke:#a02c2c;stroke-width:3.13499999"
             id="use5662-5" />
          <rect
             x="1551.5"
             y="463.59"
             width="223.08"
             height="74.286003"
             transform="matrix(0.10991,-0.99394,0.86603,0.5,0,0)"
             style="fill:#cc0000;stroke:#a02c2c;stroke-width:3.13499999"
             id="use5664-7" />
          <rect
             x="1667.5"
             y="543.82001"
             width="223.08"
             height="74.286003"
             transform="matrix(0.10991,-0.99394,0.86603,0.5,0,0)"
             style="fill:#cc0000;stroke:#a02c2c;stroke-width:3.13499999"
             id="use5666-6" />
          <rect
             x="1783.5"
             y="624.04999"
             width="223.08"
             height="74.286003"
             transform="matrix(0.10991,-0.99394,0.86603,0.5,0,0)"
             style="fill:#cc0000;stroke:#a02c2c;stroke-width:3.13499999"
             id="use5668-1" />
          <rect
             x="1899.5"
             y="704.27002"
             width="223.08"
             height="74.286003"
             transform="matrix(0.10991,-0.99394,0.86603,0.5,0,0)"
             style="fill:#cc0000;stroke:#a02c2c;stroke-width:3.13499999"
             id="use5670-8" />
          <rect
             x="1203.5"
             y="62.445999"
             width="223.08"
             height="74.286003"
             transform="matrix(0.10991,-0.99394,0.86603,0.5,0,0)"
             style="fill:#cc0000;stroke:#a02c2c;stroke-width:3.13499999"
             id="use5674-9" />
          <rect
             x="1319.5"
             y="142.67"
             width="223.08"
             height="74.286003"
             transform="matrix(0.10991,-0.99394,0.86603,0.5,0,0)"
             style="fill:#cc0000;stroke:#a02c2c;stroke-width:3.13499999"
             id="use5676-2" />
          <rect
             x="1435.5"
             y="222.89999"
             width="223.08"
             height="74.286003"
             transform="matrix(0.10991,-0.99394,0.86603,0.5,0,0)"
             style="fill:#cc0000;stroke:#a02c2c;stroke-width:3.13499999"
             id="use5678-7" />
          <rect
             x="1551.5"
             y="303.13"
             width="223.08"
             height="74.286003"
             transform="matrix(0.10991,-0.99394,0.86603,0.5,0,0)"
             style="fill:#cc0000;stroke:#a02c2c;stroke-width:3.13499999"
             id="use5680-9" />
          <rect
             x="1667.5"
             y="383.35999"
             width="223.08"
             height="74.286003"
             transform="matrix(0.10991,-0.99394,0.86603,0.5,0,0)"
             style="fill:#cc0000;stroke:#a02c2c;stroke-width:3.13499999"
             id="use5682-5" />
          <rect
             x="1783.5"
             y="463.59"
             width="223.08"
             height="74.286003"
             transform="matrix(0.10991,-0.99394,0.86603,0.5,0,0)"
             style="fill:#cc0000;stroke:#a02c2c;stroke-width:3.13499999"
             id="use5684-4" />
          <rect
             x="1899.5"
             y="543.82001"
             width="223.08"
             height="74.286003"
             transform="matrix(0.10991,-0.99394,0.86603,0.5,0,0)"
             style="fill:#cc0000;stroke:#a02c2c;stroke-width:3.13499999"
             id="use5686-3" />
          <rect
             x="1435.5"
             y="62.445999"
             width="223.08"
             height="74.286003"
             transform="matrix(0.10991,-0.99394,0.86603,0.5,0,0)"
             style="fill:#cc0000;stroke:#a02c2c;stroke-width:3.13499999"
             id="use5694-1" />
          <rect
             x="1551.5"
             y="142.67"
             width="223.08"
             height="74.286003"
             transform="matrix(0.10991,-0.99394,0.86603,0.5,0,0)"
             style="fill:#cc0000;stroke:#a02c2c;stroke-width:3.13499999"
             id="use5696-2" />
          <rect
             x="1667.5"
             y="222.89999"
             width="223.08"
             height="74.286003"
             transform="matrix(0.10991,-0.99394,0.86603,0.5,0,0)"
             style="fill:#cc0000;stroke:#a02c2c;stroke-width:3.13499999"
             id="use5698-3" />
          <rect
             x="1783.5"
             y="303.13"
             width="223.08"
             height="74.286003"
             transform="matrix(0.10991,-0.99394,0.86603,0.5,0,0)"
             style="fill:#cc0000;stroke:#a02c2c;stroke-width:3.13499999"
             id="use5700-3" />
          <rect
             x="1899.5"
             y="383.35999"
             width="223.08"
             height="74.286003"
             transform="matrix(0.10991,-0.99394,0.86603,0.5,0,0)"
             style="fill:#cc0000;stroke:#a02c2c;stroke-width:3.13499999"
             id="use5702-4" />
          <rect
             x="1667.5"
             y="62.445999"
             width="223.08"
             height="74.286003"
             transform="matrix(0.10991,-0.99394,0.86603,0.5,0,0)"
             style="fill:#cc0000;stroke:#a02c2c;stroke-width:3.13499999"
             id="use5714-1" />
          <rect
             x="1783.5"
             y="142.67"
             width="223.08"
             height="74.286003"
             transform="matrix(0.10991,-0.99394,0.86603,0.5,0,0)"
             style="fill:#cc0000;stroke:#a02c2c;stroke-width:3.13499999"
             id="use5716-1" />
          <rect
             x="1899.5"
             y="222.89999"
             width="223.08"
             height="74.286003"
             transform="matrix(0.10991,-0.99394,0.86603,0.5,0,0)"
             style="fill:#cc0000;stroke:#a02c2c;stroke-width:3.13499999"
             id="use5718-3" />
          <rect
             x="1899.5"
             y="62.445999"
             width="223.08"
             height="74.286003"
             transform="matrix(0.10991,-0.99394,0.86603,0.5,0,0)"
             style="fill:#cc0000;stroke:#a02c2c;stroke-width:3.13499999"
             id="use5734-8" />
          <rect
             x="2015.1"
             y="784.81"
             width="107.45"
             height="74.286003"
             transform="matrix(0.10991,-0.99394,0.86603,0.5,0,0)"
             style="fill:#cc0000;stroke:#a02c2c;stroke-width:3.13499999"
             id="use5554-5" />
          <rect
             x="2015.1"
             y="624.07001"
             width="107.48"
             height="74.286003"
             transform="matrix(0.10991,-0.99394,0.86603,0.5,0,0)"
             style="fill:#cc0000;stroke:#a02c2c;stroke-width:3.13499999"
             id="use5554-5-8" />
          <rect
             x="2015.1"
             y="463.62"
             width="107.48"
             height="74.286003"
             transform="matrix(0.10991,-0.99394,0.86603,0.5,0,0)"
             style="fill:#cc0000;stroke:#a02c2c;stroke-width:3.13499999"
             id="use5554-5-4" />
          <rect
             x="2015.1"
             y="303.37"
             width="107.48"
             height="74.286003"
             transform="matrix(0.10991,-0.99394,0.86603,0.5,0,0)"
             style="fill:#cc0000;stroke:#a02c2c;stroke-width:3.13499999"
             id="use5554-5-4-0" />
          <rect
             x="2015.1"
             y="142.62"
             width="107.48"
             height="74.286003"
             transform="matrix(0.10991,-0.99394,0.86603,0.5,0,0)"
             style="fill:#cc0000;stroke:#a02c2c;stroke-width:3.13499999"
             id="use5554-5-4-7" />
          <rect
             x="971.5"
             y="784.65002"
             width="107.45"
             height="74.286003"
             transform="matrix(0.10991,-0.99394,0.86603,0.5,0,0)"
             style="fill:#cc0000;stroke:#a02c2c;stroke-width:3.13499999"
             id="use5554-5-6" />
          <rect
             x="971.46997"
             y="623.90997"
             width="107.48"
             height="74.286003"
             transform="matrix(0.10991,-0.99394,0.86603,0.5,0,0)"
             style="fill:#cc0000;stroke:#a02c2c;stroke-width:3.13499999"
             id="use5554-5-8-3" />
          <rect
             x="971.46997"
             y="463.45999"
             width="107.48"
             height="74.286003"
             transform="matrix(0.10991,-0.99394,0.86603,0.5,0,0)"
             style="fill:#cc0000;stroke:#a02c2c;stroke-width:3.13499999"
             id="use5554-5-4-6" />
          <rect
             x="971.46997"
             y="303.20999"
             width="107.48"
             height="74.286003"
             transform="matrix(0.10991,-0.99394,0.86603,0.5,0,0)"
             style="fill:#cc0000;stroke:#a02c2c;stroke-width:3.13499999"
             id="use5554-5-4-0-1" />
          <rect
             x="971.46997"
             y="142.46001"
             width="107.48"
             height="74.286003"
             transform="matrix(0.10991,-0.99394,0.86603,0.5,0,0)"
             style="fill:#cc0000;stroke:#a02c2c;stroke-width:3.13499999"
             id="use5554-5-4-7-5" />
        </g>
        <g
           id="g8226">
          <rect
             x="74.730003"
             y="1305.7"
             width="114"
             height="74.286003"
             transform="matrix(-0.86307,-0.50509,0,-1,0,0)"
             style="fill:#8f0000;stroke:#a02c2c;stroke-width:3.22919989"
             id="use5554-5-42" />
          <rect
             x="74.695999"
             y="1145"
             width="114.04"
             height="74.286003"
             transform="matrix(-0.86307,-0.50509,0,-1,0,0)"
             style="fill:#8f0000;stroke:#a02c2c;stroke-width:3.22919989"
             id="use5554-5-8-0" />
          <rect
             x="74.695999"
             y="984.51001"
             width="114.04"
             height="74.286003"
             transform="matrix(-0.86307,-0.50509,0,-1,0,0)"
             style="fill:#8f0000;stroke:#a02c2c;stroke-width:3.22919989"
             id="use5554-5-4-9" />
          <rect
             x="74.695999"
             y="824.26001"
             width="114.04"
             height="74.286003"
             transform="matrix(-0.86307,-0.50509,0,-1,0,0)"
             style="fill:#8f0000;stroke:#a02c2c;stroke-width:3.22919989"
             id="use5554-5-4-0-7" />
          <rect
             x="74.695999"
             y="663.51001"
             width="114.04"
             height="74.286003"
             transform="matrix(-0.86307,-0.50509,0,-1,0,0)"
             style="fill:#8f0000;stroke:#a02c2c;stroke-width:3.22919989"
             id="use5554-5-4-7-3" />
          <rect
             x="-47.964001"
             y="1225.1"
             width="236.7"
             height="74.286003"
             transform="matrix(-0.86307,-0.50509,0,-1,0,0)"
             style="fill:#8f0000;stroke:#a02c2c;stroke-width:3.22919989"
             id="use5572-1-4-7" />
          <rect
             x="-47.964001"
             y="1064.7"
             width="236.7"
             height="74.286003"
             transform="matrix(-0.86307,-0.50509,0,-1,0,0)"
             style="fill:#8f0000;stroke:#a02c2c;stroke-width:3.22919989"
             id="use5588-7-2-2" />
          <rect
             x="-47.964001"
             y="904.20001"
             width="236.7"
             height="74.286003"
             transform="matrix(-0.86307,-0.50509,0,-1,0,0)"
             style="fill:#8f0000;stroke:#a02c2c;stroke-width:3.22919989"
             id="use5604-9-9-6" />
          <rect
             x="-47.964001"
             y="743.73999"
             width="236.7"
             height="74.286003"
             transform="matrix(-0.86307,-0.50509,0,-1,0,0)"
             style="fill:#8f0000;stroke:#a02c2c;stroke-width:3.22919989"
             id="use5620-4-6-0" />
          <rect
             x="-47.964001"
             y="583.28998"
             width="236.7"
             height="74.286003"
             transform="matrix(-0.86307,-0.50509,0,-1,0,0)"
             style="fill:#8f0000;stroke:#a02c2c;stroke-width:3.22919989"
             id="use5636-5-2-1" />
          <rect
             x="-47.933998"
             y="1305.9"
             width="114"
             height="74.286003"
             transform="matrix(-0.86307,-0.50509,0,-1,0,0)"
             style="fill:#8f0000;stroke:#a02c2c;stroke-width:3.22919989"
             id="use5554-5-42-5" />
          <rect
             x="-47.967999"
             y="1145.2"
             width="114.04"
             height="74.286003"
             transform="matrix(-0.86307,-0.50509,0,-1,0,0)"
             style="fill:#8f0000;stroke:#a02c2c;stroke-width:3.22919989"
             id="use5554-5-8-0-7" />
          <rect
             x="-47.967999"
             y="984.71002"
             width="114.04"
             height="74.286003"
             transform="matrix(-0.86307,-0.50509,0,-1,0,0)"
             style="fill:#8f0000;stroke:#a02c2c;stroke-width:3.22919989"
             id="use5554-5-4-9-5" />
          <rect
             x="-47.967999"
             y="824.46002"
             width="114.04"
             height="74.286003"
             transform="matrix(-0.86307,-0.50509,0,-1,0,0)"
             style="fill:#8f0000;stroke:#a02c2c;stroke-width:3.22919989"
             id="use5554-5-4-0-7-4" />
          <rect
             x="-47.967999"
             y="663.71002"
             width="114.04"
             height="74.286003"
             transform="matrix(-0.86307,-0.50509,0,-1,0,0)"
             style="fill:#8f0000;stroke:#a02c2c;stroke-width:3.22919989"
             id="use5554-5-4-7-3-1" />
        </g>
        <g
           transform="matrix(0.25882,0.96593,-0.96593,0.25882,-860.49,-1375.8)"
           style="stroke:#a02c2c"
           id="g7685">
          <path
             d="m 171.46,-785.85 -33.699,-220.52 81.176,-80.135 33.699,220.52 z"
             style="fill:#ff0000;stroke:#a02c2c;stroke-width:3"
             id="use5636-5-2"
             inkscape:connector-curvature="0" />
          <path
             d="m 84.355,-699.22 -33.699,-220.52 81.176,-80.135 33.699,220.52 z"
             style="fill:#ff0000;stroke:#a02c2c;stroke-width:3"
             id="use5636-5-2-4"
             inkscape:connector-curvature="0" />
          <path
             d="m 136.38,-1015.2 -33.699,-220.52 81.176,-80.135 33.699,220.52 z"
             style="fill:#ff0000;stroke:#a02c2c;stroke-width:3"
             id="use5636-5-2-07"
             inkscape:connector-curvature="0" />
          <path
             d="m 49.27,-928.57 -33.699,-220.52 81.176,-80.135 33.699,220.52 z"
             style="fill:#ff0000;stroke:#a02c2c;stroke-width:3"
             id="use5636-5-2-4-1"
             inkscape:connector-curvature="0" />
          <path
             d="m 101.4,-1244.5 -33.699,-220.52 81.176,-80.135 33.699,220.52 z"
             style="fill:#ff0000;stroke:#a02c2c;stroke-width:3"
             id="use5636-5-2-7"
             inkscape:connector-curvature="0" />
          <path
             d="m 14.295,-1157.9 -33.699,-220.52 81.176,-80.135 33.699,220.52 z"
             style="fill:#ff0000;stroke:#a02c2c;stroke-width:3"
             id="use5636-5-2-4-7"
             inkscape:connector-curvature="0" />
          <path
             d="m 66.276,-1473.9 -33.699,-220.52 81.176,-80.135 33.699,220.52 z"
             style="fill:#ff0000;stroke:#a02c2c;stroke-width:3"
             id="use5636-5-2-3"
             inkscape:connector-curvature="0" />
          <path
             d="m -20.831,-1387.3 -33.699,-220.52 81.176,-80.135 33.699,220.52 z"
             style="fill:#ff0000;stroke:#a02c2c;stroke-width:3"
             id="use5636-5-2-4-5"
             inkscape:connector-curvature="0" />
          <path
             d="m 31.224,-1703.2 -33.699,-220.52 81.176,-80.135 33.699,220.52 z"
             style="fill:#ff0000;stroke:#a02c2c;stroke-width:3"
             id="use5636-5-2-9"
             inkscape:connector-curvature="0" />
          <path
             d="m -55.883,-1616.6 -33.699,-220.52 81.176,-80.135 33.699,220.52 z"
             style="fill:#ff0000;stroke:#a02c2c;stroke-width:3"
             id="use5636-5-2-4-8"
             inkscape:connector-curvature="0" />
        </g>
      </g>
    </g>
  </g>
  <g
     inkscape:groupmode="layer"
     id="layer4"
     inkscape:label="wall2"
     style="display:inline;opacity:0.8">
    <g
       id="g2060"
       style="">
      <rect
         transform="rotate(-90)"
         id="rect2811-4"
         style="fill:#cccccc;stroke-width:0.08065177"
         height="12.443761"
         width="69.12986"
         y="129.07657"
         x="-110.26118" />
      <rect
         transform="rotate(-90)"
         x="-110.26095"
         y="132.5325"
         width="2.8803973"
         height="2.7652266"
         style="fill:#ff0000;stroke-width:0.08065177;fill-opacity:1"
         id="rect2680-2" />
      <rect
         transform="rotate(-90)"
         x="-110.26095"
         y="135.75858"
         width="7.6043329"
         height="2.7652266"
         style="fill:#ff0000;stroke-width:0.08065177;fill-opacity:1"
         id="rect2682-2" />
      <rect
         transform="rotate(-90)"
         x="-102.19577"
         y="135.70131"
         width="7.6043329"
         height="2.7652266"
         style="fill:#ff0000;stroke-width:0.08065177;fill-opacity:1"
         id="rect2684-5" />
      <rect
         transform="rotate(-90)"
         x="-110.26095"
         y="138.86931"
         width="4.8391061"
         height="2.7652266"
         style="fill:#ff0000;stroke-width:0.08065177;fill-opacity:1"
         id="rect2686-3" />
      <rect
         transform="rotate(-90)"
         x="-102.8297"
         y="129.36369"
         width="7.6043329"
         height="2.7652266"
         style="fill:#ff0000;stroke-width:0.08065177;fill-opacity:1"
         id="rect2688-1" />
      <rect
         transform="rotate(-90)"
         x="-98.969704"
         y="132.5325"
         width="7.6043329"
         height="2.7652266"
         style="fill:#ff0000;stroke-width:0.08065177;fill-opacity:1"
         id="rect2690-6" />
      <rect
         transform="rotate(-90)"
         x="-110.26095"
         y="129.36369"
         width="7.1434078"
         height="2.7652266"
         style="fill:#ff0000;stroke-width:0.08065177;fill-opacity:1"
         id="rect2692-4" />
      <rect
         transform="rotate(-90)"
         x="-107.09295"
         y="132.5325"
         width="7.6043329"
         height="2.7652266"
         style="fill:#ff0000;stroke-width:0.08065177;fill-opacity:1"
         id="rect2694-4" />
      <rect
         transform="rotate(-90)"
         x="-94.77581"
         y="129.30644"
         width="7.6043329"
         height="2.7652266"
         style="fill:#ff0000;stroke-width:0.08065177;fill-opacity:1"
         id="rect2696-0" />
      <rect
         transform="rotate(-90)"
         x="-94.130592"
         y="135.75858"
         width="7.6043329"
         height="2.7652266"
         style="fill:#ff0000;stroke-width:0.08065177;fill-opacity:1"
         id="rect2698-0" />
      <rect
         transform="rotate(-90)"
         x="-90.904526"
         y="132.5325"
         width="7.6043329"
         height="2.7652266"
         style="fill:#ff0000;stroke-width:0.08065177;fill-opacity:1"
         id="rect2700-5" />
      <rect
         transform="rotate(-90)"
         x="-105.09924"
         y="138.92738"
         width="7.6043329"
         height="2.7652266"
         style="fill:#ff0000;stroke-width:0.08065177;fill-opacity:1"
         id="rect2720-8" />
      <rect
         transform="rotate(-90)"
         x="-97.034058"
         y="138.92738"
         width="7.6043329"
         height="2.7652266"
         style="fill:#ff0000;stroke-width:0.08065177;fill-opacity:1"
         id="rect2722-4" />
      <rect
         transform="rotate(-90)"
         x="-88.96888"
         y="138.92738"
         width="7.6043329"
         height="2.7652266"
         style="fill:#ff0000;stroke-width:0.08065177;fill-opacity:1"
         id="rect2724-4" />
      <rect
         transform="rotate(-90)"
         x="-86.065422"
         y="135.75858"
         width="7.6043329"
         height="2.7652266"
         style="fill:#ff0000;stroke-width:0.08065177;fill-opacity:1"
         id="rect2726-7" />
      <rect
         transform="rotate(-90)"
         x="-82.839348"
         y="132.5325"
         width="7.6043329"
         height="2.7652266"
         style="fill:#ff0000;stroke-width:0.08065177;fill-opacity:1"
         id="rect2728-7" />
      <rect
         transform="rotate(-90)"
         x="-86.710632"
         y="129.30644"
         width="7.6043329"
         height="2.7652266"
         style="fill:#ff0000;stroke-width:0.08065177;fill-opacity:1"
         id="rect2730-7" />
      <rect
         transform="rotate(-90)"
         x="-78.645454"
         y="129.30644"
         width="7.6043329"
         height="2.7652266"
         style="fill:#ff0000;stroke-width:0.08065177;fill-opacity:1"
         id="rect2732-6" />
      <rect
         transform="rotate(-90)"
         x="-74.77417"
         y="132.5325"
         width="7.6043329"
         height="2.7652266"
         style="fill:#ff0000;stroke-width:0.08065177;fill-opacity:1"
         id="rect2734-7" />
      <rect
         transform="rotate(-90)"
         x="-78.000244"
         y="135.75858"
         width="7.6043329"
         height="2.7652266"
         style="fill:#ff0000;stroke-width:0.08065177;fill-opacity:1"
         id="rect2736-5" />
      <rect
         transform="rotate(-90)"
         x="-80.903702"
         y="138.92738"
         width="7.6043329"
         height="2.7652266"
         style="fill:#ff0000;stroke-width:0.08065177;fill-opacity:1"
         id="rect2738-3" />
      <rect
         transform="rotate(-90)"
         x="-72.838531"
         y="138.92738"
         width="7.6043329"
         height="2.7652266"
         style="fill:#ff0000;stroke-width:0.08065177;fill-opacity:1"
         id="rect2740-9" />
      <rect
         transform="rotate(-90)"
         x="-69.935066"
         y="135.75858"
         width="7.6043329"
         height="2.7652266"
         style="fill:#ff0000;stroke-width:0.08065177;fill-opacity:1"
         id="rect2742-0" />
      <rect
         transform="rotate(-90)"
         x="-61.869888"
         y="135.75858"
         width="7.6043329"
         height="2.7652266"
         style="fill:#ff0000;stroke-width:0.08065177;fill-opacity:1"
         id="rect2744-9" />
      <rect
         transform="rotate(-90)"
         x="-66.708992"
         y="132.5325"
         width="7.6043329"
         height="2.7652266"
         style="fill:#ff0000;stroke-width:0.08065177;fill-opacity:1"
         id="rect2746-4" />
      <rect
         transform="rotate(-90)"
         x="-70.580276"
         y="129.30644"
         width="7.6043329"
         height="2.7652266"
         style="fill:#ff0000;stroke-width:0.08065177;fill-opacity:1"
         id="rect2748-0" />
      <rect
         transform="rotate(-90)"
         x="-64.773354"
         y="138.92738"
         width="7.6043329"
         height="2.7652266"
         style="fill:#ff0000;stroke-width:0.08065177;fill-opacity:1"
         id="rect2750-0" />
      <rect
         transform="rotate(-90)"
         x="-62.515102"
         y="129.30644"
         width="7.6043329"
         height="2.7652266"
         style="fill:#ff0000;stroke-width:0.08065177;fill-opacity:1"
         id="rect2752-1" />
      <rect
         transform="rotate(-90)"
         x="-53.80471"
         y="135.75858"
         width="7.6043329"
         height="2.7652266"
         style="fill:#ff0000;stroke-width:0.08065177;fill-opacity:1"
         id="rect2754-5" />
      <rect
         transform="rotate(-90)"
         x="-56.708176"
         y="138.92738"
         width="7.6043329"
         height="2.7652266"
         style="fill:#ff0000;stroke-width:0.08065177;fill-opacity:1"
         id="rect2756-6" />
      <rect
         transform="rotate(-90)"
         x="-58.643818"
         y="132.5325"
         width="7.6043329"
         height="2.7652266"
         style="fill:#ff0000;stroke-width:0.08065177;fill-opacity:1"
         id="rect2758-3" />
      <rect
         transform="rotate(-90)"
         x="-50.57864"
         y="132.5325"
         width="7.6043329"
         height="2.7652266"
         style="fill:#ff0000;stroke-width:0.08065177;fill-opacity:1"
         id="rect2760-9" />
      <rect
         transform="rotate(-90)"
         x="-54.449924"
         y="129.30644"
         width="7.6043329"
         height="2.7652266"
         style="fill:#ff0000;stroke-width:0.08065177;fill-opacity:1"
         id="rect2762-8" />
      <rect
         transform="rotate(-90)"
         x="-48.642998"
         y="138.92738"
         width="7.6043329"
         height="2.7652266"
         style="fill:#ff0000;stroke-width:0.08065177;fill-opacity:1"
         id="rect2764-1" />
      <rect
         transform="rotate(-90)"
         x="-45.739532"
         y="135.75858"
         width="4.6086841"
         height="2.7652266"
         style="fill:#ff0000;stroke-width:0.08065177;fill-opacity:1"
         id="rect2766-2" />
      <rect
         transform="rotate(-90)"
         x="-42.513462"
         y="132.5325"
         width="1.2673619"
         height="2.7652266"
         style="fill:#ff0000;stroke-width:0.08065177;fill-opacity:1"
         id="rect2768-9" />
      <rect
         transform="rotate(-90)"
         x="-46.384747"
         y="129.30644"
         width="5.0695281"
         height="2.7652266"
         style="fill:#ff0000;stroke-width:0.08065177"
         id="rect2770-7" />
    </g>
    <g
       id="g2138"
       transform="translate(97.366673)"
       style="">
      <rect
         x="-110.26118"
         y="129.07657"
         width="69.12986"
         height="12.443761"
         style="fill:#cccccc;stroke-width:0.08065177"
         id="rect2062"
         transform="rotate(-90)" />
      <rect
         id="rect2064"
         style="fill:#ff0000;fill-opacity:1;stroke-width:0.08065177"
         height="2.7652266"
         width="2.8803973"
         y="132.5325"
         x="-110.26095"
         transform="rotate(-90)" />
      <rect
         id="rect2066"
         style="fill:#ff0000;fill-opacity:1;stroke-width:0.08065177"
         height="2.7652266"
         width="7.6043329"
         y="135.75858"
         x="-110.26095"
         transform="rotate(-90)" />
      <rect
         id="rect2068"
         style="fill:#ff0000;fill-opacity:1;stroke-width:0.08065177"
         height="2.7652266"
         width="7.6043329"
         y="135.70131"
         x="-102.19577"
         transform="rotate(-90)" />
      <rect
         id="rect2070"
         style="fill:#ff0000;fill-opacity:1;stroke-width:0.08065177"
         height="2.7652266"
         width="4.8391061"
         y="138.86931"
         x="-110.26095"
         transform="rotate(-90)" />
      <rect
         id="rect2072"
         style="fill:#ff0000;fill-opacity:1;stroke-width:0.08065177"
         height="2.7652266"
         width="7.6043329"
         y="129.36369"
         x="-102.8297"
         transform="rotate(-90)" />
      <rect
         id="rect2074"
         style="fill:#ff0000;fill-opacity:1;stroke-width:0.08065177"
         height="2.7652266"
         width="7.6043329"
         y="132.5325"
         x="-98.969704"
         transform="rotate(-90)" />
      <rect
         id="rect2076"
         style="fill:#ff0000;fill-opacity:1;stroke-width:0.08065177"
         height="2.7652266"
         width="7.1434078"
         y="129.36369"
         x="-110.26095"
         transform="rotate(-90)" />
      <rect
         id="rect2078"
         style="fill:#ff0000;fill-opacity:1;stroke-width:0.08065177"
         height="2.7652266"
         width="7.6043329"
         y="132.5325"
         x="-107.09295"
         transform="rotate(-90)" />
      <rect
         id="rect2080"
         style="fill:#ff0000;fill-opacity:1;stroke-width:0.08065177"
         height="2.7652266"
         width="7.6043329"
         y="129.30644"
         x="-94.77581"
         transform="rotate(-90)" />
      <rect
         id="rect2082"
         style="fill:#ff0000;fill-opacity:1;stroke-width:0.08065177"
         height="2.7652266"
         width="7.6043329"
         y="135.75858"
         x="-94.130592"
         transform="rotate(-90)" />
      <rect
         id="rect2084"
         style="fill:#ff0000;fill-opacity:1;stroke-width:0.08065177"
         height="2.7652266"
         width="7.6043329"
         y="132.5325"
         x="-90.904526"
         transform="rotate(-90)" />
      <rect
         id="rect2086"
         style="fill:#ff0000;fill-opacity:1;stroke-width:0.08065177"
         height="2.7652266"
         width="7.6043329"
         y="138.92738"
         x="-105.09924"
         transform="rotate(-90)" />
      <rect
         id="rect2088"
         style="fill:#ff0000;fill-opacity:1;stroke-width:0.08065177"
         height="2.7652266"
         width="7.6043329"
         y="138.92738"
         x="-97.034058"
         transform="rotate(-90)" />
      <rect
         id="rect2090"
         style="fill:#ff0000;fill-opacity:1;stroke-width:0.08065177"
         height="2.7652266"
         width="7.6043329"
         y="138.92738"
         x="-88.96888"
         transform="rotate(-90)" />
      <rect
         id="rect2092"
         style="fill:#ff0000;fill-opacity:1;stroke-width:0.08065177"
         height="2.7652266"
         width="7.6043329"
         y="135.75858"
         x="-86.065422"
         transform="rotate(-90)" />
      <rect
         id="rect2094"
         style="fill:#ff0000;fill-opacity:1;stroke-width:0.08065177"
         height="2.7652266"
         width="7.6043329"
         y="132.5325"
         x="-82.839348"
         transform="rotate(-90)" />
      <rect
         id="rect2096"
         style="fill:#ff0000;fill-opacity:1;stroke-width:0.08065177"
         height="2.7652266"
         width="7.6043329"
         y="129.30644"
         x="-86.710632"
         transform="rotate(-90)" />
      <rect
         id="rect2098"
         style="fill:#ff0000;fill-opacity:1;stroke-width:0.08065177"
         height="2.7652266"
         width="7.6043329"
         y="129.30644"
         x="-78.645454"
         transform="rotate(-90)" />
      <rect
         id="rect2100"
         style="fill:#ff0000;fill-opacity:1;stroke-width:0.08065177"
         height="2.7652266"
         width="7.6043329"
         y="132.5325"
         x="-74.77417"
         transform="rotate(-90)" />
      <rect
         id="rect2102"
         style="fill:#ff0000;fill-opacity:1;stroke-width:0.08065177"
         height="2.7652266"
         width="7.6043329"
         y="135.75858"
         x="-78.000244"
         transform="rotate(-90)" />
      <rect
         id="rect2104"
         style="fill:#ff0000;fill-opacity:1;stroke-width:0.08065177"
         height="2.7652266"
         width="7.6043329"
         y="138.92738"
         x="-80.903702"
         transform="rotate(-90)" />
      <rect
         id="rect2106"
         style="fill:#ff0000;fill-opacity:1;stroke-width:0.08065177"
         height="2.7652266"
         width="7.6043329"
         y="138.92738"
         x="-72.838531"
         transform="rotate(-90)" />
      <rect
         id="rect2108"
         style="fill:#ff0000;fill-opacity:1;stroke-width:0.08065177"
         height="2.7652266"
         width="7.6043329"
         y="135.75858"
         x="-69.935066"
         transform="rotate(-90)" />
      <rect
         id="rect2110"
         style="fill:#ff0000;fill-opacity:1;stroke-width:0.08065177"
         height="2.7652266"
         width="7.6043329"
         y="135.75858"
         x="-61.869888"
         transform="rotate(-90)" />
      <rect
         id="rect2112"
         style="fill:#ff0000;fill-opacity:1;stroke-width:0.08065177"
         height="2.7652266"
         width="7.6043329"
         y="132.5325"
         x="-66.708992"
         transform="rotate(-90)" />
      <rect
         id="rect2114"
         style="fill:#ff0000;fill-opacity:1;stroke-width:0.08065177"
         height="2.7652266"
         width="7.6043329"
         y="129.30644"
         x="-70.580276"
         transform="rotate(-90)" />
      <rect
         id="rect2116"
         style="fill:#ff0000;fill-opacity:1;stroke-width:0.08065177"
         height="2.7652266"
         width="7.6043329"
         y="138.92738"
         x="-64.773354"
         transform="rotate(-90)" />
      <rect
         id="rect2118"
         style="fill:#ff0000;fill-opacity:1;stroke-width:0.08065177"
         height="2.7652266"
         width="7.6043329"
         y="129.30644"
         x="-62.515102"
         transform="rotate(-90)" />
      <rect
         id="rect2120"
         style="fill:#ff0000;fill-opacity:1;stroke-width:0.08065177"
         height="2.7652266"
         width="7.6043329"
         y="135.75858"
         x="-53.80471"
         transform="rotate(-90)" />
      <rect
         id="rect2122"
         style="fill:#ff0000;fill-opacity:1;stroke-width:0.08065177"
         height="2.7652266"
         width="7.6043329"
         y="138.92738"
         x="-56.708176"
         transform="rotate(-90)" />
      <rect
         id="rect2124"
         style="fill:#ff0000;fill-opacity:1;stroke-width:0.08065177"
         height="2.7652266"
         width="7.6043329"
         y="132.5325"
         x="-58.643818"
         transform="rotate(-90)" />
      <rect
         id="rect2126"
         style="fill:#ff0000;fill-opacity:1;stroke-width:0.08065177"
         height="2.7652266"
         width="7.6043329"
         y="132.5325"
         x="-50.57864"
         transform="rotate(-90)" />
      <rect
         id="rect2128"
         style="fill:#ff0000;fill-opacity:1;stroke-width:0.08065177"
         height="2.7652266"
         width="7.6043329"
         y="129.30644"
         x="-54.449924"
         transform="rotate(-90)" />
      <rect
         id="rect2130"
         style="fill:#ff0000;fill-opacity:1;stroke-width:0.08065177"
         height="2.7652266"
         width="7.6043329"
         y="138.92738"
         x="-48.642998"
         transform="rotate(-90)" />
      <rect
         id="rect2132"
         style="fill:#ff0000;fill-opacity:1;stroke-width:0.08065177"
         height="2.7652266"
         width="4.6086841"
         y="135.75858"
         x="-45.739532"
         transform="rotate(-90)" />
      <rect
         id="rect2134"
         style="fill:#ff0000;fill-opacity:1;stroke-width:0.08065177"
         height="2.7652266"
         width="1.2673619"
         y="132.5325"
         x="-42.513462"
         transform="rotate(-90)" />
      <rect
         id="rect2136"
         style="fill:#ff0000;stroke-width:0.08065177"
         height="2.7652266"
         width="5.0695281"
         y="129.30644"
         x="-46.384747"
         transform="rotate(-90)" />
    </g>
  </g>
</svg>
